module github.com/fatkhur1960/goauction

go 1.14

require (
	github.com/alecthomas/template v0.0.0-20190718012654-fb15b899a751
	github.com/appleboy/go-fcm v0.1.5
	github.com/dgrijalva/jwt-go v3.2.0+incompatible
	github.com/gin-contrib/cors v1.3.1
	github.com/gin-gonic/gin v1.6.3
	github.com/go-openapi/spec v0.19.8 // indirect
	github.com/go-openapi/swag v0.19.9 // indirect
	github.com/go-playground/assert/v2 v2.0.1
	github.com/go-playground/validator/v10 v10.3.0 // indirect
	github.com/golang/protobuf v1.4.2 // indirect
	github.com/googollee/go-socket.io v1.4.3
	github.com/iancoleman/strcase v0.0.0-20191112232945-16388991a334
	github.com/jinzhu/gorm v1.9.14
	github.com/json-iterator/go v1.1.10 // indirect
	github.com/mailru/easyjson v0.7.1 // indirect
	github.com/mitchellh/mapstructure v1.3.2
	github.com/stretchr/testify v1.6.1
	github.com/swaggo/gin-swagger v1.2.0
	github.com/swaggo/swag v1.6.7
	golang.org/x/crypto v0.0.0-20200622213623-75b288015ac9
	golang.org/x/mod v0.3.0 // indirect
	golang.org/x/net v0.0.0-20200625001655-4c5254603344 // indirect
	golang.org/x/sys v0.0.0-20200625212154-ddb9806d33ae // indirect
	golang.org/x/text v0.3.3 // indirect
	golang.org/x/tools v0.0.0-20200626171337-aa94e735be7f // indirect
	google.golang.org/protobuf v1.25.0 // indirect
	gopkg.in/yaml.v2 v2.3.0 // indirect
	syreclabs.com/go/faker v1.2.2
	github.com/swaggo/swag/cmd/swag
	github.com/rubenv/sql-migrate/...
)
